…
## Anatomy of a `ggplot`

We use `ggplot` to visualize data, but first we need some data to
visualize\! The following code will display the `mpg` dataset. This is a
dataset of performance characteristics for a couple hundred models of
imported cars.

(Execute the following code chunk to show & inspect the dataset.)

``` r
mpg
```

    ## # A tibble: 234 × 11
    ##    manufacturer model      displ  year   cyl trans drv     cty   hwy fl    class
    ##    <chr>        <chr>      <dbl> <int> <int> <chr> <chr> <int> <int> <chr> <chr>
    ##  1 audi         a4           1.8  1999     4 auto… f        18    29 p     comp…
    ##  2 audi         a4           1.8  1999     4 manu… f        21    29 p     comp…
    ##  3 audi         a4           2    2008     4 manu… f        20    31 p     comp…
    ##  4 audi         a4           2    2008     4 auto… f        21    30 p     comp…
    ##  5 audi         a4           2.8  1999     6 auto… f        16    26 p     comp…
    ##  6 audi         a4           2.8  1999     6 manu… f        18    26 p     comp…
    ##  7 audi         a4           3.1  2008     6 auto… f        18    27 p     comp…
    ##  8 audi         a4 quattro   1.8  1999     4 manu… 4        18    26 p     comp…
    ##  9 audi         a4 quattro   1.8  1999     4 auto… 4        16    25 p     comp…
    ## 10 audi         a4 quattro   2    2008     4 manu… 4        20    28 p     comp…
    ## # ℹ 224 more rows
…
Try each of these on your own\!

### **q1** Inspect the data

Inspect the `diamonds` dataset. What do the `cut`, `color`, and
`clarity` variables mean?

*Hint* We learned how to inspect a dataset above.

``` r
## TODO: Inspect the `diamonds` dataset here
diamonds
```

    ## # A tibble: 53,940 × 10
    ##    carat cut       color clarity depth table price     x     y     z
    ##    <dbl> <ord>     <ord> <ord>   <dbl> <dbl> <int> <dbl> <dbl> <dbl>
    ##  1  0.23 Ideal     E     SI2      61.5    55   326  3.95  3.98  2.43
    ##  2  0.21 Premium   E     SI1      59.8    61   326  3.89  3.84  2.31
    ##  3  0.23 Good      E     VS1      56.9    65   327  4.05  4.07  2.31
    ##  4  0.29 Premium   I     VS2      62.4    58   334  4.2   4.23  2.63
    ##  5  0.31 Good      J     SI2      63.3    58   335  4.34  4.35  2.75
    ##  6  0.24 Very Good J     VVS2     62.8    57   336  3.94  3.96  2.48
    ##  7  0.24 Very Good I     VVS1     62.3    57   336  3.95  3.98  2.47
    ##  8  0.26 Very Good H     SI1      61.9    55   337  4.07  4.11  2.53
    ##  9  0.22 Fair      E     VS2      65.1    61   337  3.87  3.78  2.49
    ## 10  0.23 Very Good H     VS1      59.4    61   338  4     4.05  2.39
    ## # ℹ 53,930 more rows
…
