…
## Working with data: Fundamentals

Remember the `mpg` dataset from the previous tutorial?

``` r
mpg
```

    ## # A tibble: 234 × 11
    ##    manufacturer model      displ  year   cyl trans drv     cty   hwy fl    class
    ##    <chr>        <chr>      <dbl> <int> <int> <chr> <chr> <int> <int> <chr> <chr>
    ##  1 audi         a4           1.8  1999     4 auto… f        18    29 p     comp…
    ##  2 audi         a4           1.8  1999     4 manu… f        21    29 p     comp…
    ##  3 audi         a4           2    2008     4 manu… f        20    31 p     comp…
    ##  4 audi         a4           2    2008     4 auto… f        21    30 p     comp…
    ##  5 audi         a4           2.8  1999     6 auto… f        16    26 p     comp…
    ##  6 audi         a4           2.8  1999     6 manu… f        18    26 p     comp…
    ##  7 audi         a4           3.1  2008     6 auto… f        18    27 p     comp…
    ##  8 audi         a4 quattro   1.8  1999     4 manu… 4        18    26 p     comp…
    ##  9 audi         a4 quattro   1.8  1999     4 auto… 4        16    25 p     comp…
    ## 10 audi         a4 quattro   2    2008     4 manu… 4        20    28 p     comp…
    ## # ℹ 224 more rows
…
Using string-detecting patterns, we can make this a bit more general.
The following code finds all the vehicles that have manual transmission
(not just the 6-speed ones):

``` r
filter(mpg, str_detect(trans, "manual"))
```

    ## # A tibble: 77 × 11
    ##    manufacturer model      displ  year   cyl trans drv     cty   hwy fl    class
    ##    <chr>        <chr>      <dbl> <int> <int> <chr> <chr> <int> <int> <chr> <chr>
    ##  1 audi         a4           1.8  1999     4 manu… f        21    29 p     comp…
    ##  2 audi         a4           2    2008     4 manu… f        20    31 p     comp…
    ##  3 audi         a4           2.8  1999     6 manu… f        18    26 p     comp…
    ##  4 audi         a4 quattro   1.8  1999     4 manu… 4        18    26 p     comp…
    ##  5 audi         a4 quattro   2    2008     4 manu… 4        20    28 p     comp…
    ##  6 audi         a4 quattro   2.8  1999     6 manu… 4        17    25 p     comp…
    ##  7 audi         a4 quattro   3.1  2008     6 manu… 4        15    25 p     comp…
    ##  8 chevrolet    corvette     5.7  1999     8 manu… r        16    26 p     2sea…
    ##  9 chevrolet    corvette     6.2  2008     8 manu… r        16    26 p     2sea…
    ## 10 chevrolet    corvette     7    2008     8 manu… r        15    24 p     2sea…
    ## # ℹ 67 more rows
…
To derive values from a dataset, we can use the `mutate()` function. For
instance, the following code computes the average of the `hwy` and `cty`
fuel economies:

``` r
mpg %>% 
  mutate(avg = (hwy + cty) / 2) %>% 
  # Move the new `avg` column to the front, for visibility
  select(avg, hwy, cty, everything())
```

    ## # A tibble: 234 × 12
    ##      avg   hwy   cty manufacturer model      displ  year   cyl trans drv   fl   
    ##    <dbl> <int> <int> <chr>        <chr>      <dbl> <int> <int> <chr> <chr> <chr>
    ##  1  23.5    29    18 audi         a4           1.8  1999     4 auto… f     p    
    ##  2  25      29    21 audi         a4           1.8  1999     4 manu… f     p    
    ##  3  25.5    31    20 audi         a4           2    2008     4 manu… f     p    
    ##  4  25.5    30    21 audi         a4           2    2008     4 auto… f     p    
    ##  5  21      26    16 audi         a4           2.8  1999     6 auto… f     p    
    ##  6  22      26    18 audi         a4           2.8  1999     6 manu… f     p    
    ##  7  22.5    27    18 audi         a4           3.1  2008     6 auto… f     p    
    ##  8  22      26    18 audi         a4 quattro   1.8  1999     4 manu… 4     p    
    ##  9  20.5    25    16 audi         a4 quattro   1.8  1999     4 auto… 4     p    
    ## 10  24      28    20 audi         a4 quattro   2    2008     4 manu… 4     p    
    ## # ℹ 224 more rows
    ## # ℹ 1 more variable: class <chr>

We can also use a `mutate` to help clean up strings. For instance, we
can remove the number of speeds from `trans` to simplify the column.
Here, I use a regular expression to remove the parentheticals from every
transmission string:

``` r
mpg %>% 
  mutate(trans = str_remove(trans, "\\(.*\\)"))
```

    ## # A tibble: 234 × 11
    ##    manufacturer model      displ  year   cyl trans drv     cty   hwy fl    class
    ##    <chr>        <chr>      <dbl> <int> <int> <chr> <chr> <int> <int> <chr> <chr>
    ##  1 audi         a4           1.8  1999     4 auto  f        18    29 p     comp…
    ##  2 audi         a4           1.8  1999     4 manu… f        21    29 p     comp…
    ##  3 audi         a4           2    2008     4 manu… f        20    31 p     comp…
    ##  4 audi         a4           2    2008     4 auto  f        21    30 p     comp…
    ##  5 audi         a4           2.8  1999     6 auto  f        16    26 p     comp…
    ##  6 audi         a4           2.8  1999     6 manu… f        18    26 p     comp…
    ##  7 audi         a4           3.1  2008     6 auto  f        18    27 p     comp…
    ##  8 audi         a4 quattro   1.8  1999     4 manu… 4        18    26 p     comp…
    ##  9 audi         a4 quattro   1.8  1999     4 auto  4        16    25 p     comp…
    ## 10 audi         a4 quattro   2    2008     4 manu… 4        20    28 p     comp…
    ## # ℹ 224 more rows
…
I pre-processed all of the text from the Lincoln-Douglas debates. I did
this in a [separate
notebook](https://github.com/zdelrosario/datafest2023-tutorials/blob/main/source/02-data-sm.Rmd);
the code is a bit involved, but you might find some of the steps there
useful for DataFest.

The following code loads the pre-processed Lincoln-Douglas debate
transcripts:

``` r
df_debates <- read_rds("./data/lincoln-douglas-debates.rds")
df_debates
```

    ## # A tibble: 4,097 × 4
    ##    debate    speaker part           sentence                                    
    ##    <chr>     <chr>   <chr>          <chr>                                       
    ##  1 01-ottawa Douglas Opening Speech "200\nMr. Douglas's Opening Speech"         
    ##  2 01-ottawa Douglas Opening Speech "\n\nLADIES AND GENTLEMEN: I appear before …
    ##  3 01-ottawa Douglas Opening Speech " By an arrangement between Mr. Lincoln and…
    ##  4 01-ottawa Douglas Opening Speech "\n\nPrior to 1854 this country was divided…
    ##  5 01-ottawa Douglas Opening Speech " Both were national and patriotic, advocat…
    ##  6 01-ottawa Douglas Opening Speech " An old-line Whig could proclaim his princ…
    ##  7 01-ottawa Douglas Opening Speech " Whig principles had no boundary sectional…
    ##  8 01-ottawa Douglas Opening Speech " So it was, and so it is with the great De…
    ##  9 01-ottawa Douglas Opening Speech " While the Whig and Democratic parties dif…
    ## 10 01-ottawa Douglas Opening Speech " I say that the Whig party and the Democra…
    ## # ℹ 4,087 more rows
…
    ## Rows: 333333 Columns: 2
    ## ── Column specification ──────────────────────────────────────────────────────────────────────
    ## Delimiter: "\t"
    ## chr (1): word
    ## dbl (1): n
    ## 
    ## ℹ Use `spec()` to retrieve the full column specification for this data.
    ## ℹ Specify the column types or set `show_col_types = FALSE` to quiet this message.

``` r
df_words_web
```

    ## # A tibble: 333,333 × 3
    ##    word            n       f
    ##    <chr>       <dbl>   <dbl>
    ##  1 the   23135851162 0.0393 
    ##  2 of    13151942776 0.0224 
    ##  3 and   12997637966 0.0221 
    ##  4 to    12136980858 0.0206 
    ##  5 a      9081174698 0.0154 
    ##  6 in     8469404971 0.0144 
    ##  7 for    5933321709 0.0101 
    ##  8 is     4705743816 0.00800
    ##  9 on     3750423199 0.00638
    ## 10 that   3400031103 0.00578
    ## # ℹ 333,323 more rows
…
df_words_gettysburg
```

    ## # A tibble: 138 × 3
    ##    word      n      f
    ##    <chr> <int>  <dbl>
    ##  1 that     13 0.0478
    ##  2 the      11 0.0404
    ##  3 we       10 0.0368
    ##  4 here      8 0.0294
    ##  5 to        8 0.0294
    ##  6 a         7 0.0257
    ##  7 and       6 0.0221
    ##  8 can       5 0.0184
    ##  9 for       5 0.0184
    ## 10 have      5 0.0184
    ## # ℹ 128 more rows
…
df_compare_words %>% 
  arrange(desc(r))
```

    ## # A tibble: 138 × 5
    ##    word            n f_gettysburg       f_web      r
    ##    <chr>       <int>        <dbl>       <dbl>  <dbl>
    ##  1 consecrate      1      0.00368 0.000000193 19060.
    ##  2 nobly           1      0.00368 0.000000202 18206.
    ##  3 hallow          1      0.00368 0.000000238 15417.
    ##  4 consecrated     1      0.00368 0.000000850  4323.
    ##  5 dedicate        2      0.00735 0.00000171   4306.
    ##  6 detract         1      0.00368 0.000000896  4104.
    ##  7 perish          1      0.00368 0.00000154   2388.
    ##  8 devotion        2      0.00735 0.00000394   1865.
    ##  9 conceived       2      0.00735 0.00000479   1535.
    ## 10 endure          1      0.00368 0.00000328   1119.
    ## # ℹ 128 more rows
…
